{
  "development": {
    "storage": "./api/nlg.sqlite3",
    "dialect": "sqlite"
  },
  "test": {
    "storage": "./api/nlg.sqlite3",
    "dialect": ":memory"
  },
  "production": {
    "storage": "./api/nlg.sqlite3",
    "dialect": "sqlite"
  }

}
